…
Развить практические навыки использования языка программирования R для обработки данных
Закрепить знания базовых типов данных языка R
Развить пркатические навыки использования функций обработки данных пакета dplyr – функции select(), filter(), mutate(), arrange(), group_by()
Подготовка
library (dplyr)
## 
## Attaching package: 'dplyr'
## The following objects are masked from 'package:stats':
## 
##     filter, lag
## The following objects are masked from 'package:base':
## 
##     intersect, setdiff, setequal, union
starwars
## # A tibble: 87 × 14
##    name        height  mass hair_…¹ skin_…² eye_c…³ birth…⁴ sex   gender homew…⁵
##    <chr>        <int> <dbl> <chr>   <chr>   <chr>     <dbl> <chr> <chr>  <chr>  
##  1 Luke Skywa…    172    77 blond   fair    blue       19   male  mascu… Tatooi…
##  2 C-3PO          167    75 <NA>    gold    yellow    112   none  mascu… Tatooi…
##  3 R2-D2           96    32 <NA>    white,… red        33   none  mascu… Naboo  
##  4 Darth Vader    202   136 none    white   yellow     41.9 male  mascu… Tatooi…
##  5 Leia Organa    150    49 brown   light   brown      19   fema… femin… Aldera…
##  6 Owen Lars      178   120 brown,… light   blue       52   male  mascu… Tatooi…
##  7 Beru White…    165    75 brown   light   blue       47   fema… femin… Tatooi…
##  8 R5-D4           97    32 <NA>    white,… red        NA   none  mascu… Tatooi…
##  9 Biggs Dark…    183    84 black   light   brown      24   male  mascu… Tatooi…
## 10 Obi-Wan Ke…    182    77 auburn… fair    blue-g…    57   male  mascu… Stewjon
## # … with 77 more rows, 4 more variables: species <chr>, films <list>,
## #   vehicles <list>, starships <list>, and abbreviated variable names
## #   ¹​hair_color, ²​skin_color, ³​eye_color, ⁴​birth_year, ⁵​homeworld
…
max(na.omit(starwars$height))
## [1] 264
starwars %>% filter(height<170)
## # A tibble: 23 × 14
##    name        height  mass hair_…¹ skin_…² eye_c…³ birth…⁴ sex   gender homew…⁵
##    <chr>        <int> <dbl> <chr>   <chr>   <chr>     <dbl> <chr> <chr>  <chr>  
##  1 C-3PO          167    75 <NA>    gold    yellow      112 none  mascu… Tatooi…
##  2 R2-D2           96    32 <NA>    white,… red          33 none  mascu… Naboo  
##  3 Leia Organa    150    49 brown   light   brown        19 fema… femin… Aldera…
##  4 Beru White…    165    75 brown   light   blue         47 fema… femin… Tatooi…
##  5 R5-D4           97    32 <NA>    white,… red          NA none  mascu… Tatooi…
##  6 Yoda            66    17 white   green   brown       896 male  mascu… <NA>   
##  7 Mon Mothma     150    NA auburn  fair    blue         48 fema… femin… Chandr…
##  8 Wicket Sys…     88    20 brown   brown   brown         8 male  mascu… Endor  
##  9 Nien Nunb      160    68 none    grey    black        NA male  mascu… Sullust
## 10 Watto          137    NA black   blue, … yellow       NA male  mascu… Toydar…
## # … with 13 more rows, 4 more variables: species <chr>, films <list>,
## #   vehicles <list>, starships <list>, and abbreviated variable names
## #   ¹​hair_color, ²​skin_color, ³​eye_color, ⁴​birth_year, ⁵​homeworld
Задание 7
Подсчитать ИМТ (индекс массы тела) для всех персонажей. ИМТ подсчитать по формуле 𝐼 = 𝑚 ℎ2 , где 𝑚 – масса (weight), а ℎ – рост (height).

starwars %>%
 mutate(imt = mass / ((height*0.01) ^ 2)) %>%
 select(name,imt)
## # A tibble: 87 × 2
##    name                 imt
##    <chr>              <dbl>
##  1 Luke Skywalker      26.0
##  2 C-3PO               26.9
##  3 R2-D2               34.7
##  4 Darth Vader         33.3
##  5 Leia Organa         21.8
##  6 Owen Lars           37.9
##  7 Beru Whitesun lars  27.5
##  8 R5-D4               34.0
##  9 Biggs Darklighter   25.1
## 10 Obi-Wan Kenobi      23.2
## # … with 77 more rows
…
starwars %>%
  filter(!(species %in% NA)) %>%
  group_by(species) %>%
  summarise(mean_len_name = mean(nchar(name)))
## # A tibble: 37 × 2
##    species   mean_len_name
##    <chr>             <dbl>
##  1 Aleena            13   
##  2 Besalisk          15   
##  3 Cerean            12   
##  4 Chagrian          10   
##  5 Clawdite          10   
##  6 Droid              4.83
##  7 Dug                7   
##  8 Ewok              21   
##  9 Geonosian         17   
## 10 Gungan            11.7 
## # … with 27 more rows
…
